<?xml version="1.0" encoding="UTF-8" standalone="no"?>
<svg width="45px" height="45px" viewBox="0 0 45 45" version="1.1" xmlns="http://www.w3.org/2000/svg" xmlns:xlink="http://www.w3.org/1999/xlink" xmlns:sketch="http://www.bohemiancoding.com/sketch/ns">
    <!-- Generator: Sketch 3.3.1 (12002) - http://www.bohemiancoding.com/sketch -->
    <title>banner_arrow_left</title>
    <desc>Created with Sketch.</desc>
    <defs></defs>
    <g id="Page-1" stroke="none" stroke-width="1" fill="none" fill-rule="evenodd" sketch:type="MSPage">
        <g id="banner_arrow_left" sketch:type="MSArtboardGroup" fill="#46731E">
            <g id="Imported-Layers" sketch:type="MSLayerGroup" transform="translate(21.500000, 23.000000) scale(-1, 1) translate(-21.500000, -23.000000) translate(15.000000, 19.000000)">
                <path d="M12.457,3.67 L0.792,7.239 C4.253,3.176 0.792,0.099 0.792,0.099 L12.457,3.67" id="Fill-2" sketch:type="MSShapeGroup"></path>
            </g>
        </g>
    </g>
</svg>